pl\kis\visca\cmd\ViscaCommand.class
bean\ViscaBackingClass.class
pl\kis\visca\cmd\PanTiltUpCmd.class
pl\kis\visca\Main.class
pl\kis\visca\cmd\PanTiltRightCmd.class
pl\kis\visca\cmd\ZoomTeleStdCmd.class
pl\kis\visca\cmd\AddressCmd.class
pl\kis\visca\cmd\PanTiltAbsolutePosCmd.class
pl\kis\visca\cmd\PanTiltHomeCmd.class
pl\kis\visca\cmd\GetPanTiltMaxSpeedCmd.class
pl\kis\visca\cmd\PanTiltLeftCmd.class
bean\MainExt.class
pl\kis\visca\cmd\Cmd.class
pl\kis\visca\cmd\ZoomWideStdCmd.class
pl\kis\visca\cmd\ClearAllCmd.class
pl\kis\visca\ViscaResponseReader$TimeoutException.class
pl\kis\visca\cmd\PanTiltDownCmd.class
pl\kis\visca\ViscaResponseReader.class
